<?xml version="1.0" encoding="UTF-8" standalone="no"?>
<svg
    xmlns="http://www.w3.org/2000/svg"
    data-icon="delete"
    width="128"
    height="128"
    viewBox="0 0 128 128">
    <defs>
        <clipPath id="clip-0">
            <path d="M0 0v72h128v-72h-128zm94.7 51l-5.7 5.7-15-15-15 15-5.7-5.7 15-15-15-15 5.7-5.7 15 15 15-15 5.7 5.7-15 15 15 15z" />
        </clipPath>
    </defs>
    <g
        data-width="128"
        data-height="72"
        display="inline"
        transform="translate(0 28)">
        <path
            d="M23.2 1.2l-22.4 33.6c-.5.7-.5 1.8 0 2.5l22.3 33.5c.5.7 1.5 1.2 2.3 1.2h101c.8 0 1.5-.7 1.5-1.5v-69c0-.8-.7-1.5-1.5-1.5h-101c-.7 0-1.8.6-2.2 1.2z"
            clip-path="url(#clip-0)"
            style="stroke:none;fill:#ff2424;fill-opacity:1;stroke-width:16;stroke-linecap:square;stroke-miterlimit:10" />
            />
    </g>
</svg>
